<svg width="340" height="366" viewBox="0 0 340 366" fill="none" xmlns="http://www.w3.org/2000/svg">
<path d="M3.17975 490.862C3.17975 516.32 19.1049 533.657 41.0646 533.657C60.457 533.657 72.7205 522.59 75.1037 506.174H56.7954C55.343 513.548 49.2982 517.609 41.2487 517.609C28.9852 517.609 21.488 506.358 21.488 490.862C21.488 475.357 28.9852 464.106 41.2487 464.106C49.2982 464.106 55.343 468.166 56.7954 475.541H75.1037C72.7205 459.125 60.457 448.058 41.0646 448.058C19.1049 448.058 3.18998 465.394 3.18998 490.862H3.17975ZM162.973 490.862C162.973 465.763 147.232 448.058 124.362 448.058C101.482 448.058 85.7511 465.763 85.7511 490.862C85.7511 515.952 101.482 533.657 124.362 533.657C147.232 533.657 162.973 515.952 162.973 490.862ZM144.665 490.862C144.665 506.358 137.536 517.793 124.362 517.793C111.178 517.793 104.049 506.358 104.049 490.862C104.049 475.357 111.178 463.922 124.362 463.922C137.536 463.922 144.675 475.357 144.675 490.862H144.665ZM233.291 531.805H251.6V411.901H233.291V456.925C229.63 452.313 221.58 448.068 212.62 448.068C188.83 448.068 174.92 467.44 174.92 490.873C174.92 514.479 188.83 533.667 212.61 533.667C221.58 533.667 229.63 529.422 233.291 524.82V531.826V531.805ZM233.291 506.358C231.658 509.619 229.151 512.363 226.051 514.285C222.95 516.206 219.377 517.229 215.73 517.241C201.635 517.241 193.228 505.99 193.228 490.852C193.228 475.725 201.635 464.474 215.73 464.474C223.227 464.474 230.182 468.903 233.291 475.357V506.358ZM336.82 531.805V478.128C336.82 459.493 324.741 448.058 304.243 448.058C287.592 448.058 274.787 458.572 272.403 472.595H289.975C291.98 466.867 296.562 463.737 303.885 463.737C314.308 463.737 319.432 470.191 319.432 478.497V485.145C316.139 482.741 307.905 480.153 300.582 480.153C282.652 480.153 268.926 491.046 268.926 506.542C268.926 523.326 282.652 533.288 299.303 533.288C308.457 533.288 316.691 529.964 319.432 527.203V531.805H336.82ZM319.432 510.04C317.417 515.205 310.104 518.345 302.781 518.345C294.547 518.345 285.945 514.837 285.945 506.542C285.945 498.421 294.537 494.913 302.781 494.913C310.104 494.913 317.417 498.053 319.432 503.218V510.04ZM309.941 0.333496H30.0592C21.9802 0.34693 14.2347 3.55666 8.51432 9.26171C2.79394 14.9668 -0.436565 22.7036 -0.47168 30.7825L-0.47168 335.191C-0.433871 343.268 2.79782 351.002 8.51791 356.705C14.238 362.408 21.9819 365.616 30.0592 365.63H309.941C318.018 365.616 325.762 362.408 331.482 356.705C337.202 351.002 340.434 343.268 340.471 335.191V320.974C339.96 302.717 339.449 264.668 339.449 247.413C339.449 237.779 332.33 229.657 323.165 229.657C312.988 229.657 306.371 235.743 301.277 240.816C286.017 254.522 263.127 257.058 243.284 253.499C234.12 251.474 225.467 248.937 218.338 244.376C196.46 231.693 182.212 207.841 182.212 182.475C182.212 157.11 196.46 133.769 218.338 120.575C225.978 116.013 234.621 113.477 243.274 111.451C262.605 107.892 286.027 110.429 301.288 124.134C306.882 129.207 313.5 135.283 323.176 135.283C332.33 135.283 339.449 127.172 339.449 117.537C339.449 100.794 339.96 62.2339 340.471 43.9665V30.7723C340.431 22.6969 337.198 14.9653 331.478 9.26468C325.758 3.56404 318.016 0.357127 309.941 0.343724V0.333496Z" fill="#F46A54"/>
</svg>
